<?xml version="1.0" encoding="UTF-8" standalone="no"?>
<svg
   xmlns:dc="http://purl.org/dc/elements/1.1/"
   xmlns:cc="http://creativecommons.org/ns#"
   xmlns:rdf="http://www.w3.org/1999/02/22-rdf-syntax-ns#"
   xmlns:svg="http://www.w3.org/2000/svg"
   xmlns="http://www.w3.org/2000/svg"
   xmlns:sodipodi="http://sodipodi.sourceforge.net/DTD/sodipodi-0.dtd"
   xmlns:inkscape="http://www.inkscape.org/namespaces/inkscape"
   height="24px"
   viewBox="0 0 24 24"
   width="24px"
   fill="#000000"
   version="1.1"
   id="svg6"
   sodipodi:docname="skype_24dp.svg"
   inkscape:version="0.92.3 (2405546, 2018-03-11)">
  <metadata
     id="metadata12">
    <rdf:RDF>
      <cc:Work
         rdf:about="">
        <dc:format>image/svg+xml</dc:format>
        <dc:type
           rdf:resource="http://purl.org/dc/dcmitype/StillImage" />
        <dc:title></dc:title>
      </cc:Work>
    </rdf:RDF>
  </metadata>
  <defs
     id="defs10" />
  <sodipodi:namedview
     pagecolor="#ffffff"
     bordercolor="#666666"
     borderopacity="1"
     objecttolerance="10"
     gridtolerance="10"
     guidetolerance="10"
     inkscape:pageopacity="0"
     inkscape:pageshadow="2"
     inkscape:window-width="1216"
     inkscape:window-height="635"
     id="namedview8"
     showgrid="false"
     inkscape:zoom="4.2652854"
     inkscape:cx="25.464099"
     inkscape:cy="-2.3149181"
     inkscape:window-x="0"
     inkscape:window-y="25"
     inkscape:window-maximized="0"
     inkscape:current-layer="svg6" />
  <path
     d="m 22.734638,13.993402 c -0.009,0.04064 -0.01355,0.08129 -0.02258,0.121933 l -0.04064,-0.234834 c 0.02258,0.04064 0.04064,0.07677 0.06322,0.112901 0.117417,-0.650309 0.180641,-1.314167 0.180641,-1.978024 0,-1.472228 -0.289026,-2.903811 -0.858047,-4.2495896 C 21.506275,6.4651696 20.720485,5.2955163 19.717925,4.2929563 18.715365,3.2903963 17.545711,2.504606 16.249609,1.9536496 14.90383,1.384629 13.472246,1.0956027 12.000019,1.0956027 c -0.69547,0 -1.390939,0.063225 -2.068345,0.1941896 0,0 -0.00453,0 -0.00453,0 0.036128,0.018064 0.076773,0.036128 0.112901,0.058708 L 9.809732,1.3123727 C 9.850375,1.3033427 9.886505,1.2988247 9.927149,1.2897927 8.9968557,0.7975444 7.9536512,0.5310982 6.8968986,0.5310982 c -1.7251259,0 -3.3508988,0.6728894 -4.5702285,1.8922192 C 1.1073403,3.6426471 0.4344509,5.26842 0.4344509,6.9935459 c 0,1.0973971 0.28451028,2.1812455 0.8128865,3.1341291 0.00903,-0.04064 0.013548,-0.08129 0.018064,-0.117417 l 0.040644,0.230318 c -0.02258,-0.03613 -0.040644,-0.07226 -0.058709,-0.108385 -0.1083848,0.618697 -0.1625773,1.250942 -0.1625773,1.883187 0,1.472228 0.2890263,2.903811 0.8580469,4.24959 0.5509564,1.300618 1.3367467,2.465756 2.3393067,3.468316 1.0025601,1.00256 2.1722133,1.78835 3.4728317,2.339307 1.3457791,0.56902 2.7773626,0.858047 4.2495906,0.858047 0.641277,0 1.282554,-0.05871 1.910283,-0.17161 -0.03613,-0.02258 -0.07226,-0.04064 -0.112901,-0.05871 l 0.234834,0.04064 c -0.04064,0.009 -0.08129,0.01355 -0.121933,0.01806 0.966432,0.54644 2.063829,0.839982 3.17929,0.839982 1.725125,0 3.350898,-0.672889 4.570228,-1.892219 1.21933,-1.21933 1.892219,-2.845102 1.892219,-4.570228 -0.0045,-1.097397 -0.289026,-2.181246 -0.821918,-3.143161 z m -10.693974,4.710225 c -3.8792752,0 -5.6134333,-1.905767 -5.6134333,-3.33735 0,-0.731598 0.5419245,-1.246426 1.2870707,-1.246426 1.661901,0 1.2283617,2.384467 4.3263626,2.384467 1.585128,0 2.46124,-0.862563 2.46124,-1.74319 0,-0.528376 -0.26193,-1.115461 -1.305135,-1.372875 L 9.7465173,12.52569 c -2.7773621,-0.69547 -3.283158,-2.19931 -3.283158,-3.6128288 0,-2.9309071 2.7592981,-4.0328201 5.3515027,-4.0328201 2.388983,0 5.202474,1.3186824 5.202474,3.0799367 0,0.754178 -0.654825,1.1922337 -1.399971,1.1922337 -1.418036,0 -1.156106,-1.9599598 -4.01024,-1.9599598 -1.418036,0 -2.1993104,0.6412769 -2.1993104,1.5580322 0,0.9167553 1.1199774,1.2102973 2.0909254,1.4315831 l 2.556076,0.569021 c 2.795426,0.623213 3.504444,2.258018 3.504444,3.79347 0,2.379952 -1.828995,4.159269 -5.518596,4.159269 z"
     id="path4"
     inkscape:connector-curvature="0"
     style="stroke-width:0.00052518" />
</svg>
