<?xml version="1.0" encoding="UTF-8" standalone="no"?>
<svg
   xmlns:dc="http://purl.org/dc/elements/1.1/"
   xmlns:cc="http://creativecommons.org/ns#"
   xmlns:rdf="http://www.w3.org/1999/02/22-rdf-syntax-ns#"
   xmlns:svg="http://www.w3.org/2000/svg"
   xmlns="http://www.w3.org/2000/svg"
   xmlns:sodipodi="http://sodipodi.sourceforge.net/DTD/sodipodi-0.dtd"
   xmlns:inkscape="http://www.inkscape.org/namespaces/inkscape"
   height="24px"
   viewBox="0 0 24 24"
   width="24px"
   fill="#000000"
   version="1.1"
   id="svg6"
   sodipodi:docname="whatsapp.svg"
   inkscape:version="0.92.3 (2405546, 2018-03-11)">
  <metadata
     id="metadata12">
    <rdf:RDF>
      <cc:Work
         rdf:about="">
        <dc:format>image/svg+xml</dc:format>
        <dc:type
           rdf:resource="http://purl.org/dc/dcmitype/StillImage" />
        <dc:title></dc:title>
      </cc:Work>
    </rdf:RDF>
  </metadata>
  <defs
     id="defs10" />
  <sodipodi:namedview
     pagecolor="#ffffff"
     bordercolor="#666666"
     borderopacity="1"
     objecttolerance="10"
     gridtolerance="10"
     guidetolerance="10"
     inkscape:pageopacity="0"
     inkscape:pageshadow="2"
     inkscape:window-width="1216"
     inkscape:window-height="635"
     id="namedview8"
     showgrid="false"
     inkscape:zoom="5.2618395"
     inkscape:cx="11.713843"
     inkscape:cy="-2.440384"
     inkscape:window-x="0"
     inkscape:window-y="25"
     inkscape:window-maximized="0"
     inkscape:current-layer="svg6" />
  <path
     d="M 19.957223,4.3074344 C 17.795802,2.1415012 14.921428,0.95023798 11.857536,0.95023798 c -6.308281,0 -11.44334769,5.13506672 -11.44334769,11.44785902 0,2.017025 0.52794624,3.988926 1.52969029,5.721674 L 0.31942874,24.053525 6.3885542,22.460661 c 1.6740861,0.911497 3.55574,1.39432 5.4689818,1.39432 h 0.0046 c 0,0 0,0 0,0 6.30828,0 11.447859,-5.135066 11.447859,-11.447859 0,-3.0593805 -1.191264,-5.9337543 -3.352685,-8.0996876 z M 11.862048,21.923691 v 0 c -1.710185,0 -3.3842711,-0.460261 -4.8462759,-1.326635 l -0.3474517,-0.207568 -3.600864,0.943084 0.9611328,-3.510618 -0.225618,-0.360989 c -0.9566205,-1.51164 -1.4574925,-3.262436 -1.4574925,-5.062868 0,-5.2478754 4.2686932,-9.5165685 9.5210823,-9.5165685 2.540458,0 4.93201,0.9927194 6.72793,2.788639 1.795918,1.8004317 2.784126,4.1874711 2.784126,6.7324415 -0.0045,5.252388 -4.273206,9.521082 -9.516569,9.521082 z m 5.216289,-7.12953 c -0.284279,-0.144396 -1.692135,-0.834787 -1.953853,-0.929547 -0.261716,-0.09476 -0.451235,-0.144395 -0.645266,0.144395 -0.18952,0.284279 -0.740028,0.929547 -0.906986,1.123579 -0.166956,0.189518 -0.333914,0.216593 -0.618193,0.0722 C 12.66976,15.060388 11.744727,14.75806 10.652735,13.78339 9.8044115,13.025313 9.2268287,12.086742 9.0598712,11.802463 8.8929146,11.518184 9.0418171,11.360252 9.1862175,11.220369 9.3170762,11.094023 9.4704964,10.886455 9.6148916,10.719497 9.7592878,10.55254 9.8044115,10.435218 9.8991705,10.241187 9.9939284,10.051668 9.9488036,9.8847104 9.8766081,9.7403152 9.8044126,9.5959211 9.2313422,8.1880647 8.9966996,7.6149949 8.7665694,7.055462 8.5274142,7.1321723 8.3514317,7.1231475 c -0.1669576,-0.00903 -0.3564765,-0.00903 -0.5459955,-0.00903 -0.1895191,0 -0.5008718,0.072198 -0.7625889,0.3564763 -0.2617169,0.2842789 -1.0017442,0.9791824 -1.0017442,2.3870388 0,1.4078574 1.024306,2.7660774 1.1687017,2.9601084 0.1443954,0.189519 2.017025,3.081942 4.8868872,4.318329 0.681367,0.293303 1.213825,0.469286 1.628962,0.604657 0.685878,0.216593 1.308585,0.185006 1.800432,0.112809 0.550508,-0.08122 1.692135,-0.690392 1.931291,-1.358221 0.239155,-0.667829 0.239155,-1.2409 0.166956,-1.358221 -0.06769,-0.126346 -0.257204,-0.198544 -0.545995,-0.342939 z"
     id="path4"
     inkscape:connector-curvature="0"
     style="stroke-width:0.00000028" />
</svg>
